%YAML 1.1
%TAG !u! tag:unity3d.com,2011:
--- !u!114 &11400000
MonoBehaviour:
  m_ObjectHideFlags: 0
  m_CorrespondingSourceObject: {fileID: 0}
  m_PrefabInstance: {fileID: 0}
  m_PrefabAsset: {fileID: 0}
  m_GameObject: {fileID: 0}
  m_Enabled: 1
  m_EditorHideFlags: 0
  m_Script: {fileID: 11500000, guid: 557914e2f93b43cdb051a5b372aa2cc7, type: 3}
  m_Name: Enemy - MonsterFly
  m_EditorClassIdentifier: 
  _type: 4
  _team: 2
  _actionType: 2
  _immobilityTime: 3
  _speed: 5
  _turnSmoothDuration: 0.1
  _slowDownDuration: 0.2
  _gravityForce: 1
  _maxHealth: 4
  _regenerationHealth: 0
  _regenerationDelay: 0
  _farZoneRadius: 4
  _collisionDamage: 2
  _distanceToPlayer: 5
  _rayLayerMask:
    serializedVersion: 2
    m_Bits: 2176
  _maxDistance: 30
  _rewardMoney: 3
  _shootRotationSpeed: 5
  _dotForShoot: 0.98
